Exercise-05-Quarto-Challange-1
…
Creating a new column that codes the startYear into a new variable “decade”

md2 <- md |>
  filter(startYear >= 1920 & startYear <= 1979) |>
  filter(runtimeMinutes >= 60 & runtimeMinutes <= 180) |> 
  mutate(decade = case_when(startYear >= 1920 & startYear <= 1929 ~ "20s",
                            startYear >= 1930 & startYear <= 1939 ~ "30s",
                            startYear >= 1940 & startYear <= 1949 ~ "40s",
                            startYear >= 1950 & startYear <= 1959 ~ "50s",
                            startYear >= 1960 & startYear <= 1969 ~ "60s",
                            startYear >= 1970 & startYear <= 1979 ~ "70s"))
md2

# A tibble: 5,651 × 11
   tconst   titleType primaryTitle startYear runtimeMinutes genres averageRating
   <chr>    <chr>     <chr>            <dbl>          <dbl> <chr>          <dbl>
 1 tt00103… movie     The Cabinet…      1920             76 Fanta…           8.1
 2 tt00110… movie     Leaves From…      1920            167 Drama            6.7
 3 tt00111… movie     Dr. Jekyll …      1920             82 Drama…           7  
 4 tt00112… movie     The Golem         1920             76 Fanta…           7.2
 5 tt00113… movie     The Last of…      1920             73 Actio…           6.7
 6 tt00114… movie     The Mark of…      1920            107 Adven…           7.1
 7 tt00115… movie     The Penalty       1920             90 Crime…           7.4
 8 tt00116… movie     The Saphead       1920             77 Comedy           6.2
 9 tt00118… movie     Way Down Ea…      1920            145 Drama…           7.4
10 tt00118… movie     Why Change …      1920             90 Comed…           6.7
# ℹ 5,641 more rows
# ℹ 4 more variables: numVotes <dbl>, nconst <chr>, director <chr>,
#   decade <chr>
…
I single sampled 100 movies without replacement from the original data set and for each decade using the slice_sample() function. I then calculated the:

single sample mean

single sample standard deviation

This was done for the “runtimeMinutes” for each “decade.” I also created a new dataframe called mdsample. Values for the mean and standard deviation are always changing every time you run the code since it’s taking a new sample. So, I ended up splitting the mode into two chunks so I can work with the same numbers. I couldn’t set the set.seed() function to work.

md_sample <- md2 |> 
  group_by(decade) |>
  slice_sample(n = 100, replace = FALSE)
md_sample

# A tibble: 600 × 11
# Groups:   decade [6]
   tconst   titleType primaryTitle startYear runtimeMinutes genres averageRating
   <chr>    <chr>     <chr>            <dbl>          <dbl> <chr>          <dbl>
 1 tt00129… movie     Blood and S…      1922             80 Drama…           6.4
 2 tt00179… movie     The General       1926             67 Actio…           8.1
 3 tt00185… movie     Wings             1927            144 Actio…           7.5
 4 tt00139… movie     The Faithfu…      1923             87 Drama…           7.5
 5 tt00173… movie     The Scarlet…      1926            115 Drama            7.7
 6 tt00198… movie     Desert Nigh…      1929             62 Adven…           6.5
 7 tt00187… movie     Pandora's B…      1929            109 Crime…           7.9
 8 tt00204… movie     Spite Marri…      1929             76 Comedy           7  
 9 tt00194… movie     Steamboat B…      1928             70 Actio…           7.9
10 tt00126… movie     The Sheik         1921             86 Adven…           6.4
# ℹ 590 more rows
# ℹ 4 more variables: numVotes <dbl>, nconst <chr>, director <chr>,
#   decade <chr>
…
for (i in 1:random_sample) {
   s[[i]] <- md2 |> #md2 original table with decades column
     group_by(decade) |> 
     slice_sample(n = sample_size, replace = FALSE) |> # used slice_sample for datatables 
     group_by(decade) |>
     summarize(meanRTMsampledis = mean(runtimeMinutes, na.rm = TRUE), 
               sdRTMsampledis = sd(runtimeMinutes, na.rm = TRUE))
}

combined_sample_distribution  <- bind_rows(s) #combined everything into one datatable
combined_sample_distribution  

# A tibble: 6,000 × 3
   decade meanRTMsampledis sdRTMsampledis
   <chr>             <dbl>          <dbl>
 1 20s                94.5           25.0
 2 30s                92.9           18.0
 3 40s                99.6           19.9
 4 50s                96.4           17.6
 5 60s               104.            21.0
 6 70s               103.            16.4
 7 20s                97.5           26.9
 8 30s                90.9           15.5
 9 40s                98.0           19.8
10 50s                98.2           18.2
# ℹ 5,990 more rows
…
