Exercise-05-Quarto-Challenge-2
…
Step 6

I first created a sample of using slice_sample() function (n=50). I next calculated the sample mean, standard deviation (SD), and standard error (SE) for each of the variables (e.g., “height”, “weight”, “age”, “zombies_killed”, and “years_of_education”).

I next calculated the a theoretical 95% confidence interval for each variable mean using normal distribution. I chose the normal distribution because our n is larger than 30.

Sampling

zd_sample <- zd |> 
  slice_sample(n = 50, replace = FALSE)
zd_sample

# A tibble: 50 × 10
      id first_name last_name gender height weight zombies_killed
   <dbl> <chr>      <chr>     <chr>   <dbl>  <dbl>          <dbl>
 1   117 Kathleen   Harris    Female   65.7   142.              2
 2   697 Carol      Perez     Female   69.8   158.              1
 3   892 Clarence   Moore     Male     63.0   131.              1
 4    91 Justin     Murphy    Male     65.9   145.              5
 5   857 Evelyn     Gutierrez Female   66.9   141.              1
 6   378 Jean       Johnson   Female   67.7   137.              5
 7   978 Willie     Richards  Male     64.7   133.              5
 8   684 Christina  Harrison  Female   66.8   128.              3
 9   870 Thomas     Fox       Male     78.6   205.              6
10   929 Raymond    Ferguson  Male     64.2   119.              6
# ℹ 40 more rows
# ℹ 3 more variables: years_of_education <dbl>, major <chr>, age <dbl>
…
              years_of_education_sampleM = mean(years_of_education, na.rm = TRUE),
              years_of_education_sampleSD = sd(years_of_education, na.rm = TRUE),
              years_of_education_sampleSE = sd(years_of_education, na.rm = TRUE) / sqrt(length( years_of_education)))
}

#combined everything into one datatable
zd_combined_sample_distribution_199  <- bind_rows(zd_s) 

#combined that first sample I took to the 199 I just sampled
zd_combined_sample_distribution_200 <- bind_rows(zd_s, zd_sampleMSDSE)

zd_combined_sample_distribution_200

# A tibble: 200 × 15
   height_sampleM height_sampleSD height_sampleSE weight_sampleM weight_sampleSD
            <dbl>           <dbl>           <dbl>          <dbl>           <dbl>
 1           67.1            3.95           0.559           142.            16.5
 2           67.9            4.64           0.656           143.            16.6
 3           68.1            4.17           0.590           147.            17.3
 4           67.1            3.92           0.554           140.            18.4
 5           67.3            3.68           0.520           143.            15.0
 6           67.1            4.33           0.612           142.            19.0
 7           67.7            4.47           0.633           144.            19.4
 8           67.1            4.23           0.599           141.            18.6
 9           67.6            4.10           0.580           147.            16.8
10           68.1            4.63           0.655           148.            19.3
# ℹ 190 more rows
# ℹ 10 more variables: weight_sampleSE <dbl>, age_sampleM <dbl>,
#   age_sampleSD <dbl>, age_sampleSE <dbl>, zombies_killed_sampleM <dbl>,
#   zombies_killed_sampleSD <dbl>, zombies_killed_sampleSE <dbl>,
#   years_of_education_sampleM <dbl>, years_of_education_sampleSD <dbl>,
#   years_of_education_sampleSE <dbl>
…
